…
#### *Q1.1 How many aisles are there, and which aisles are the most items ordered from?*

``` r
instacart %>% 
  count(aisle) %>% 
  arrange(-n)
## # A tibble: 134 × 2
##    aisle                              n
##    <chr>                          <int>
##  1 fresh vegetables              150609
##  2 fresh fruits                  150473
##  3 packaged vegetables fruits     78493
##  4 yogurt                         55240
##  5 packaged cheese                41699
##  6 water seltzer sparkling water  36617
##  7 milk                           32644
##  8 chips pretzels                 31269
##  9 soy lactosefree                26240
## 10 bread                          23635
## # … with 124 more rows
```
…
Next, we will tidy the dataset:

``` r
accelero_df %>% 
  pivot_longer(
    cols = activity.1:activity.1440,
    names_to = "minute",
    values_to = "activity_counts",
    names_prefix = "activity."
  )
## # A tibble: 50,400 × 5
##     week day_id day    minute activity_counts
##    <dbl>  <dbl> <chr>  <chr>            <dbl>
##  1     1      1 Friday 1                 88.4
##  2     1      1 Friday 2                 82.2
##  3     1      1 Friday 3                 64.4
##  4     1      1 Friday 4                 70.0
##  5     1      1 Friday 5                 75.0
##  6     1      1 Friday 6                 66.3
##  7     1      1 Friday 7                 53.8
##  8     1      1 Friday 8                 47.8
##  9     1      1 Friday 9                 55.5
## 10     1      1 Friday 10                43.0
## # … with 50,390 more rows
```
